*** Life<Cell> 13x11 ***

Generation = 0, Population = 11.
--------0-0
--------0--
-----------
----0------
-----------
-----------
------0----
---0-------
-------0-0-
---0---0---
----0------
-----------
-----------

Generation = 10, Population = 64.
*-.0*-.-*-*
*10*1*..***
1------*.-*
-*.....-.-0
0-**.0--.0.
*-*.1-11*..
*1--.*0-*.-
1-1-**.*1*-
-**.-...-.*
--0.--*.1*-
01..1-.--10
-0-..-*10*1
--0----**-0

*** Life<Cell> 16x13 ***

Generation = 0, Population = 10.
-------------
-------------
---------0---
----0--------
-------------
---0-----0---
--0----------
-------------
-----------0-
----0--------
-------------
-------------
-0-----------
----0--------
-------------
-0-----------

Generation = 10, Population = 94.
010-1*---.-*-
-*-*0.1***-10
--1-*----0-.-
-01......*-.-
--*.-*110*11-
*1*....*.*-*1
----01---..10
*-.**1***.*1-
11.111--0*10-
-1-..*1*-*..-
*-00-1-------
-.0--1-------
--*-1.--1.10-
..**.110--110
-*-1..-100---
**-.**-0---00

*** Life<Cell> 9x22 ***

Generation = 0, Population = 11.
-------------------0--
----------------------
--------------0---0---
----------------0-0---
-0--------------------
----------------------
---0----0----------0--
----------------------
--------------------00

Generation = 10, Population = 79.
---0-0--01-0-.1*1-*-0*
--------1----0-*1*.11-
---001---1.110-..0...-
------1--01--...1-*-.-
00-*.1--0--1.-10*-..**
--------0---*0-0.1.010
*.*.-1.-.1101**1-0..11
--------------***-.1*1
00--.---1-01-11.0.-0*-

*** Life<Cell> 24x11 ***

Generation = 0, Population = 11.
-------0---
-----------
-----------
-----0-----
--0--------
-----------
-----------
-----------
-----------
-----------
---0-------
-----------
-----------
-----0-----
---------0-
-----------
-----------
-----------
--------0--
-0------0--
----0--0---
-----------
-----------
-----------

Generation = 10, Population = 115.
-.**1.10---
0-1*0--0---
00*-0***-.-
--01----0*-
-----*-...*
-1-0----11-
--.--.00111
---.-------
---.101-1--
-0---.--1--
-1--..--**0
-0010-10**-
0-..*--*0-0
-.*.--1.-*1
--1.1.**10*
-*0*--*0.0.
00--1-1.0*-
1-01101-*--
*11...1.**.
*--*.-.*.0.
*1-1-.111.-
11--01--1..
--0-*..1*--
-0---**-.0*

*** Life<Cell> 2x25 ***

Generation = 0, Population = 10.
00----0-0-----------0-0--
-------0-----0-0-----0---

Generation = 10, Population = 14.
-..*****--110---0-0------
-.0-1--1-----------0-----

*** Life<Cell> 4x4 ***

Generation = 0, Population = 8.
-0-0
0-0-
--0-
00-0

Generation = 10, Population = 10.
.***
1..1
*-*1
*.1.

*** Life<Cell> 25x21 ***

Generation = 0, Population = 11.
---------------------
---------------------
---------------------
-------0---------0---
-------------------0-
---------------------
---------------------
--------------------0
---------------0-----
---------------------
---------------------
---------------------
---------------------
-0-------------------
-----------0------0-0
-----------0---------
---------------------
---------------------
---------------------
---------------------
------0--------------
---------------------
---------------------
---------------------
---------------------

Generation = 10, Population = 162.
-------------0-0---0-
-------0-0-----1-1---
-----------0----1*01-
-0---0-0-0-1-0-0-.0.1
---------1-0-00--.*.-
---0---0-0-10-00**-1-
-------0-0-*-0-00----
-0-------110*0.-.0**-
-----0---1011---*-1-0
-------1-0--0000-1.0.
------010-0.0--1-0-0*
-----------*-0-11-.-.
---00---0--.11..**---
-----1--01*..-0.-10-1
-0--1*.--.*1...*..---
-0---0---.010.-*0*1-*
---1---0*-*.*0**-0-1-
---0-----11.01-1---00
0-------01.*-1-------
-0---------1---------
0-0---0---001---0-0-0
---0-------*---------
0---0---00---00-0-0--
-0-------0---0-------
------0----1------0-0

*** Life<Cell> 21x25 ***

Generation = 0, Population = 11.
-0-----0-----------------
---------------0---------
-------------0-----------
-------------------------
--------0----------------
-------------------------
---------0---------------
-------------------------
-------------------------
-------------------------
-------------------------
-------------------------
----------0--------------
-------------------------
-------------------------
--------0----------------
--0----------------------
-------------------------
-------------------------
------------0------------
----------------------0--

Generation = 10, Population = 145.
---0--101***-.1.00---0---
-------100*.-...0.0--1---
0---01-.*1-.00****1.---1-
-----0---.-**0.*0------0-
1-1.--..-.---1*-0*0--0---
-------1---10-10-*-------
000-.1-..1*-0-00---0-----
------1-*00----0---------
1--101-*1-.-00---0-------
------------01---0-------
-0------1111---1--0---0--
------.-------00---------
0---00-1**-0-0--0-----0-0
0------1*0------0--------
--1-----11*0------0-0-0-0
0-0-------*-------0------
--1-.---01--*---------0--
0---1---0---1---0---0----
0---1---------0-----1----
--1-------*-------1---0--
--0-----1-1---0-1-1-*-0--

*** Life<Cell> 8x23 ***

Generation = 0, Population = 11.
----0--------------0-0-
--0--------------------
-------------------0---
----------0------------
------00--------------0
---0-------------------
-----------------------
---------------0-------

Generation = 10, Population = 74.
.-.-.*.1-*-*1-1-----.**
.*.*11.0*--111-.-1--0*-
.1-..1.1--*.--0*00*1.1*
---*11.**-1-0.--...0---
..1*.-.1-*-*-1-.-...**.
-*.--*-*00*--0-1----*-1
--.-..1*00..00-0---.--1
--.0*0-.0...1-0----**--
