*** Life<FredkinCell> 2x36 ***

Generation = 0, Population = 13.
0---0--------0-----0------00-0----0-
--0--0---------0--------0---------0-

*** Life<FredkinCell> 9x38 ***

Generation = 0, Population = 14.
----0------------------------0--------
------------0----------0-------------0
------------------------0-------------
-----0--0-----------------------------
----------------------------------0---
-------------0------------------------
-------------0-0--------0-------------
-------------0------------------------
--------------------------------------

*** Life<FredkinCell> 32x30 ***

Generation = 0, Population = 10.
------------------------------
------------------------------
---0--------------------------
----------------0-------------
--------------------0---------
------------------------------
------------------------------
-----------------------0------
------------------------------
---------------0-------0------
------------------------------
------------------------------
---------------0--------------
------------------------------
------------------------------
------------------------------
------------------------------
------------------------------
------------------------------
------------------------------
------------------------------
------------------------------
------------------------------
------------------------------
------------------------0-----
------------------------------
------------------------------
------------------------------
--------------------0---------
------------------------0-----
------------------------------
------------------------------

*** Life<FredkinCell> 8x11 ***

Generation = 0, Population = 14.
-----0-----
--------0--
0-0---0--0-
-------0---
-0---0-0---
----------0
-------0---
--0-------0

*** Life<FredkinCell> 2x2 ***

Generation = 0, Population = 4.
00
00

*** Life<FredkinCell> 16x16 ***

Generation = 0, Population = 9.
----------------
0---------------
----------------
----------------
----------------
----------------
-------------0--
----0-----------
----------------
------0---------
------0---------
---0------------
-----------0----
--------0---0---
----------------
----------------

*** Life<FredkinCell> 22x15 ***

Generation = 0, Population = 10.
---------------
---------------
-------------0-
------0--------
---------------
---------------
---------------
---------------
---------------
---------------
-0-------------
-----0---------
---------------
---------------
--0------------
---------------
---------------
---------------
---------0---0-
---------------
---0----0------
---0-----------

*** Life<FredkinCell> 40x36 ***

Generation = 0, Population = 13.
-------------00---------------------
-----------------------------0------
------------------------------------
------------------------------------
------------------------------------
------------------------------------
--------------0---------------------
------------------------------------
------------------------------------
------------------------------------
----------------------------------0-
------------------------------------
------------------------------------
------------------------------------
------------------------------------
---0--------------------------------
------------------------------------
------------------------------------
---------0--------------------------
------------------------------------
-----------------------------------0
------------0-----------------------
------------------------------------
------------------------------------
------------------------------------
------------------------------------
-------------0----------------------
------------------------------------
------------------------------------
---0--------------------------------
------------------------------------
------------------------------------
------------------------------------
-----------------------0------------
------------------------------------
------------------------------------
-----------------------0------------
------------------------------------
------------------------------------
------------------------------------

Generation = 7, Population = 414.
------01-----3-2----10-0-----------0
-------00---0-0-0--00-0-0---------0-
--------01-1-3-1-110---0-0-------0-0
---------0--0-0-00------0-0-----0---
---------01--4-21--0-----0-0---0---0
--------0-00--00--0-0-----0-0-0---0-
-------0-0-01-1--0-0-0-----0-0---0--
--------0-0-00--0-0-0-------0---0---
---0-----0-0-0-0-0-0-----------0----
--0-0-----0-0-0-0-0---------0-0-----
-0-0-0-----0-0-0-0---------0-0------
0-0-0-0--0--0-0-0-----------0-0-----
-0-0-0-00-0--0-0-------------0-0----
--0-0-0100-0--0---------------0-0--0
---0-002000--------------------0-00-
----0100020---------------------000-
---0010001----------------------01-1
--0100010----------------------0--0-
-0020001----------------------0-----
0-00020------0---0-----------0------
-0-001------0-0-0-0---------0-------
--0-0------0-0---0-0---------0------
----------0-0-----0-----------0-----
--0-0----0-0-------------------0----
-0-0-0--0-0-------0-------------0---
0-0-0-00-0-------0-0-------------0--
-0-0-0010-------0-0-0--0----------0-
--0-0-0100-----0-0-0--0-0----------0
---0-0-0010---0-0-0--0-0-0----------
----0-0-0100-0-0-0--0-000-0---------
---0-0-0-00-0-0-0--0-00200-0--------
--0-0-0-0--0-0-0--0-0002000-0-------
-0-0-0-0----0-0--0-001010100-0------
0-0-0-0------0--0-00010001000-0-----
-0-0-0-----------0020003000200------
--0-0------------0020003000200------
---0------------0-00010001000-0-----
-----------------0-0010-0100-0------
------------------0-00-0-00-0-------
-------------------0--0-0--0--------

Generation = 14, Population = 386.
123212-2-3-2-3-2-6-1-2-221210-0-0---
---0-----------0-------------0------
-001-220-1-1-4-1-2-0-320-10-0-----0-
-0---0-----------0-------------0----
--0113-10--0-6-2-0-010-10-----------
---0---0-----------0-------------0--
0---000--00--2-1-110-10-----0------0
-----0---1--0--------0-------------1
--0--0011--22--123-10-----0------1-0
-------0--11--0--------0-----------1
---01--1000--11--00-----0------1-0-1
--------00--11--0--------0-------1--
-0---00--00113-1100----------1-1-0-0
------0---22--31--1--------0---1----
---0---20---301-0--10---0--1-0-1-1-2
---00---0---11--11--0--------1------
-----1----0---1---0--0---010-0-0-1-2
-11--00---02--10--0---0-------------
------------0---1--------0-001-1-1-1
0--01--001--11--0---0--10-----------
--------------0------0-2-0-0-010-1-0
1-1--323-000--0---0--11--00---------
-----------------------1-0-0-0-001-1
0---11-011-00---0--00--10--1--------
-------------------------0-2-0-0-010
--02--00-11--00--11--30--1---1------
---------------------------1-0-0-0-0
-1--11--0--01---0--10--1---1---1----
-0-----------------------------2-0-0
---0--0---2---1---0--1---0---0---1--
---0-------------------3---0-----0-0
--------0---1---0--0---2---0---1---1
-----0---------------1-------0-----2
----------0---0--1---1-0-1---0---0-2
-------0-----------3-----------2----
-------0----0--1---2-0-4-0-2---2---1
-----------------0---------------0-0
---0-0---0---1---0-0-1-4-1-0-0---0--
---------------1-------------------0
-0-0-0-0-------0-0-0-0-1-0-0-0-0----

Generation = 21, Population = 485.
475-343-243-13---6-----3234----11---
--0-0---02012-0-0-0---0-01--010-00-0
1-0-0-2--1---62--3-----1---00-10----
0----0-------10----------------0-00-
121-----1------21----------00----422
000-0--1----02-0-00---0-----00-0-0--
-0---1----1-245-12-0-1-0-0-------0-2
--0-0----20--0--------0---0--------1
---0-----1-22----4-2---------0---111
0-0-0----011-----0----0---0-0-----01
-0-1----1-00--3-133--0-0-0-0---1----
0--------10-1----0--0-0---0---0-----
-------0---22-3----0---0-0---1---1--
-----01-002------0-------10-0-0-0-0-
----0-0-04414-3-2-1--0-0010--1---1--
-----10-1----1----00-0-100----------
--00---00331----11-----202-101---1--
--362-----0--0---0-30--10--3--0-0-0-
0--2----0-011-2-----0-0--0-2-41--1--
-0-------20-1-00-00100-3-0-0-1------
0-----0----002-2---10-070---01--0---
-------4--0--010-000--2-21-00200-00-
--0-0----0-0-----0-0---2--0-010-02-1
-0---2----0-------01-0---0---0----0-
--0--------0------01--0-----0-------
---3-0----2-1-1---2324---2-1-10--00-
0--00-0----1-0-0---0---00-0-02-21210
-20-22--------0----2--0-00-2--0--00-
---0--------------0-0-----0-0----1--
-0-------1---------1--0-0--0-0--0---
0-01---00-0--------0---6---10-0----1
-00-0-0100--------0-0--4--0-00---001
------020---0---------0-0--0-1--0--4
--0-00-1---0-2----0-0--0----0-0--006
----0-01----0------4---3-----0-----1
--01010-0--0----------0-0----0-3-1-2
--020---0-0-0---0------1----0----5--
---0--0210-0-1-1-------------0-10200
---0---00-----0---0--------------0--
--0-0------0-----0------------------

Generation = 28, Population = 398.
-----7------2-----2---4--554-5-3-422
-1-002--02--30-114-114-3-1-3-2-1-1-2
--------------6--53---4---3--221-374
-----------1-------0----------------
-4------43-----------223-13--343-6-6
0----3-101--15--00-3-2--12-5-3-0-0-1
-----1----3-368---3--23---0------223
-------0---------------0------------
-5--00-----------6-2-1-1-003-01--2-4
--1-1----1-331---0-111-1-1--12-2-0-2
-2----4-4-5---5--45---1--32---2-----
---2-----------------------0--------
20---2-------4-1-0-0-1-3-3-1-2-3-21-
3-----2-0----3--21---2-304-4-1--12-2
-1--3-----7---6---3--43---1--11--2--
-------------------------------0----
-20------3-4-3-3-1-2-0---212-5-0--32
--4-4-----172----4--12---3-311-1-1--
0----3--------6---4---0--20--5---421
-----------------------6---2--------
-----121-2-5-2-3-0---20+-1-----2-2-0
2-----342-----210----3--23---3-2---0
--1------1--------2--00--2---20--301
---4---------------6---3---2--------
-------0-003-4---012-2-----3-2---2-3
--153-----241------32----5--1----1-3
------1----------0---2---33--326-21-
-------4-------1---6---4-------1----
---1---------031-1-----4-0---2-3-5--
2-----112------31------512---1--12--
---------20--2----1--2---01--00---02
------------2--0---3-------3-------4
-------------------1-2---3-0-2------
--0-0------03------103------02-----8
-----1--------0--3-------3----1--30-
-------42--2----1------4-------4-3--
---3-----------------2-4-3----------
1--2---51------21-------12-----4-5--
-0-------------------0---2---0----0-
---21--4---21-------0------1-1-----2

*** Life<FredkinCell> 17x18 ***

Generation = 0, Population = 10.
--0---------------
-------------0----
--------0---------
---------0------0-
------------------
------------------
------------------
------------------
------------------
------------------
---------0--------
------------------
---0--------------
------------------
-0------0---------
------------------
-------------0----

*** Life<FredkinCell> 4x8 ***

Generation = 0, Population = 9.
------00
-0-0-0--
--------
-0---000

*** Life<FredkinCell> 13x24 ***

Generation = 0, Population = 10.
--0---------------------
------------------------
-----0--0-----------0---
------------------------
------------------------
---0--------------------
--0---------------------
------------0-----------
----0-------------------
----------0-------------
------------------------
----------0-------------
------------------------
